FAMILY	T_F	T_M	T_P1	T_P3	T_P4	T_P5
GH1	13	12	14	12	13	14
GH2	2	2	2	2	2	2
GH3	0	0	0	0	0	0
GH4	0	0	0	0	0	0
GH5	1	0	1	1	0	1
GH8	0	0	0	0	0	0
GH9	3	3	3	4	4	3
GH10	0	0	0	0	0	0
GH11	0	0	0	0	0	0
GH13	7	5	7	7	6	6
GH14	0	0	0	0	0	0
GH15	1	0	1	1	1	1
GH16	2	2	2	2	2	2
GH18	12	11	11	9	11	11
GH19	0	0	0	0	0	0
GH20	3	3	3	3	3	3
GH23	0	0	0	0	0	0
GH24	0	0	0	0	0	0
GH25	0	0	0	0	0	0
GH26	0	0	0	0	0	0
GH27	0	0	0	0	0	0
GH28	0	0	0	0	0	0
GH29	0	0	0	0	0	0
GH30	2	2	2	1	3	3
GH31	4	2	3	3	4	4
GH32	0	0	0	0	0	0
GH35	3	2	3	1	3	3
GH37	4	3	4	3	3	4
GH38	1	1	1	1	1	1
GH39	1	1	1	1	1	1
GH42	0	0	0	0	0	0
GH43	0	0	0	0	0	0
GH47	5	2	4	4	4	5
GH50	0	0	0	0	0	0
GH51	0	0	0	0	0	0
GH53	0	0	0	0	0	0
GH54	0	0	0	0	0	0
GH55	0	0	0	0	0	0
GH56	1	0	1	1	0	1
GH57	0	0	0	0	0	0
GH63	1	0	1	1	1	1
GH65	0	0	0	0	0	0
GH67	0	0	0	0	0	0
GH73	0	0	0	0	0	0
GH74	1	1	2	1	1	1
GH77	0	0	0	1	0	0
GH78	0	0	0	0	0	0
GH85	0	0	0	0	0	0
GH88	0	0	0	0	0	0
GH89	2	2	2	2	2	2
GH94	0	0	0	0	0	0
GH95	0	0	0	0	0	0
GH97	0	0	0	0	0	0
GH102	0	0	0	0	0	0
GH103	0	0	0	0	0	0
GH105	0	0	0	0	0	0
GH108	0	0	0	0	0	0
GH109	2	2	1	3	1	1
GH112	0	0	0	0	0	0
GH113	1	0	1	0	0	0
GH114	0	0	0	0	0	0
GH115	0	0	0	0	0	0
GH116	0	0	0	0	0	0
GH120	0	0	0	0	0	0
GH125	0	0	0	0	0	0
GH127	0	0	0	0	0	0
GH128	0	0	0	0	0	0
GH130	0	0	0	0	0	0
GH133	0	0	0	0	0	0
GH136	0	0	0	0	0	0
GH141	0	0	0	0	0	0
